---
http_interactions:
- request:
    method: get
    uri: http://api.beatport.com/catalog/3/labels?
    body:
      encoding: US-ASCII
      string: ''
    headers: {}
  response:
    status:
      code: 200
      message: OK
    headers:
      date:
      - Wed, 10 Oct 2012 00:51:11 GMT
      server:
      - Apache
      expires:
      - Wed, 10 Oct 2012 01:21:11 GMT
      pragma:
      - public
      cache-control:
      - public, max-age=1800
      access-control-allow-origin:
      - ! '*'
      connection:
      - close
      transfer-encoding:
      - chunked
      content-type:
      - application/json
    body:
      encoding: US-ASCII
      string: ! '{"metadata":{"host":"api.beatport.com","path":"\/catalog\/labels","query":false,"page":1,"perPage":10,"count":22434,"totalPages":2244,"nextQuery":"page=2","perPageOptions":[{"value":50,"applyQuery":"perPage=50"},{"value":100,"applyQuery":"perPage=100"},{"value":150,"applyQuery":"perPage=150"}],"facets":{"fields":[]},"appliedFacets":[],"spellcheck":{"suggestions":[]}},"results":[{"id":3,"type":"label","name":"12
        Inch Thumpers","slug":"12-inch-thumpers","active":true,"lastPublishDate":"2010-09-15","biography":"","genres":[{"id":8,"name":"Hard
        Dance","slug":"hard-dance","type":"genre"},{"id":5,"name":"House","slug":"house","type":"genre"},{"id":15,"name":"Progressive
        House","slug":"progressive-house","type":"genre"},{"id":16,"name":"DJ Tools","slug":"dj-tools","type":"genre"},{"id":6,"name":"Techno","slug":"techno","type":"genre"},{"id":7,"name":"Trance","slug":"trance","type":"genre"},{"id":2,"name":"Hardcore
        \/ Hard Techno","slug":"hardcore-hard-techno","type":"genre"}],"subGenres":[{"id":18,"name":"Disco","slug":"disco","type":"subgenre"},{"id":46,"name":"Acapellas","slug":"acapellas","type":"subgenre"},{"id":17,"name":"Vocal
        House","slug":"vocal-house","type":"subgenre"},{"id":29,"name":"Tech","slug":"tech","type":"subgenre"},{"id":31,"name":"Hard","slug":"hard","type":"subgenre"}],"displayLevel":1,"images":{"small":{"width":30,"height":30,"url":"http:\/\/geo-media.beatport.com\/image\/2215.jpg","secureUrl":"https:\/\/media.beatport.com\/image\/2215.jpg"},"medium":{"width":60,"height":60,"url":"http:\/\/geo-media.beatport.com\/image\/2.jpg","secureUrl":"https:\/\/media.beatport.com\/image\/2.jpg"},"large":{"width":500,"height":500,"url":"http:\/\/geo-media.beatport.com\/image\/5539566.jpg","secureUrl":"https:\/\/media.beatport.com\/image\/5539566.jpg"},"banner":{"width":592,"height":96,"url":"http:\/\/geo-media.beatport.com\/image\/37199.jpg","secureUrl":"https:\/\/media.beatport.com\/image\/37199.jpg"}},"dynamicImages":{"main":{"url":"\/\/geo-media.beatport.com\/image_size{hq}\/{w}x{h}\/2.jpg"}}},{"id":5,"type":"label","name":"24seven","slug":"24seven","active":true,"lastPublishDate":"2007-05-15","biography":"","genres":[{"id":5,"name":"House","slug":"house","type":"genre"},{"id":15,"name":"Progressive
        House","slug":"progressive-house","type":"genre"},{"id":17,"name":"Electro
        House","slug":"electro-house","type":"genre"},{"id":3,"name":"Electronica","slug":"electronica","type":"genre"}],"subGenres":[{"id":19,"name":"Tribal","slug":"tribal","type":"subgenre"}],"displayLevel":1,"images":{"small":{"width":30,"height":30,"url":"http:\/\/geo-media.beatport.com\/image\/73504.jpg","secureUrl":"https:\/\/media.beatport.com\/image\/73504.jpg"},"medium":{"width":60,"height":60,"url":"http:\/\/geo-media.beatport.com\/image\/73503.jpg","secureUrl":"https:\/\/media.beatport.com\/image\/73503.jpg"},"large":{"width":500,"height":500,"url":"http:\/\/geo-media.beatport.com\/image\/5539566.jpg","secureUrl":"https:\/\/media.beatport.com\/image\/5539566.jpg"}},"dynamicImages":{"main":{"url":"\/\/geo-media.beatport.com\/image_size{hq}\/{w}x{h}\/73503.jpg"}}},{"id":7,"type":"label","name":"3am
        Recordings","slug":"3am-recordings","active":true,"lastPublishDate":"2012-09-17","biography":"","genres":[{"id":5,"name":"House","slug":"house","type":"genre"},{"id":12,"name":"Deep
        House","slug":"deep-house","type":"genre"},{"id":11,"name":"Tech House","slug":"tech-house","type":"genre"},{"id":10,"name":"Chill
        Out","slug":"chill-out","type":"genre"},{"id":3,"name":"Electronica","slug":"electronica","type":"genre"},{"id":15,"name":"Progressive
        House","slug":"progressive-house","type":"genre"},{"id":6,"name":"Techno","slug":"techno","type":"genre"},{"id":37,"name":"Indie
        Dance \/ Nu Disco","slug":"indie-dance-nu-disco","type":"genre"}],"subGenres":[{"id":43,"name":"Acid","slug":"acid","type":"subgenre"},{"id":39,"name":"Downtempo","slug":"downtempo","type":"subgenre"},{"id":18,"name":"Disco","slug":"disco","type":"subgenre"},{"id":14,"name":"Electro","slug":"electro","type":"subgenre"},{"id":87,"name":"Garage","slug":"garage","type":"subgenre"},{"id":19,"name":"Tribal","slug":"tribal","type":"subgenre"}],"displayLevel":1,"images":{"small":{"width":30,"height":30,"url":"http:\/\/geo-media.beatport.com\/image\/4050320.jpg","secureUrl":"https:\/\/media.beatport.com\/image\/4050320.jpg"},"medium":{"width":60,"height":60,"url":"http:\/\/geo-media.beatport.com\/image\/4050321.jpg","secureUrl":"https:\/\/media.beatport.com\/image\/4050321.jpg"},"large":{"width":500,"height":500,"url":"http:\/\/geo-media.beatport.com\/image\/4050322.jpg","secureUrl":"https:\/\/media.beatport.com\/image\/4050322.jpg"},"banner":{"width":592,"height":96,"url":"http:\/\/geo-media.beatport.com\/image\/836697.jpg","secureUrl":"https:\/\/media.beatport.com\/image\/836697.jpg"}},"dynamicImages":{"main":{"url":"\/\/geo-media.beatport.com\/image_size{hq}\/{w}x{h}\/4050322.jpg"},"banner":{"url":"\/\/geo-media.beatport.com\/image_size{hq}\/{w}x{h}\/836697.jpg"}}},{"id":8,"type":"label","name":"720
        Degrees Music","slug":"720-degrees-music","active":true,"lastPublishDate":"2004-12-17","biography":"","genres":[],"subGenres":[],"displayLevel":1,"images":{"small":{"width":30,"height":30,"url":"http:\/\/geo-media.beatport.com\/image\/2219.jpg","secureUrl":"https:\/\/media.beatport.com\/image\/2219.jpg"},"medium":{"width":60,"height":60,"url":"http:\/\/geo-media.beatport.com\/image\/6.jpg","secureUrl":"https:\/\/media.beatport.com\/image\/6.jpg"},"large":{"width":500,"height":500,"url":"http:\/\/geo-media.beatport.com\/image\/5539566.jpg","secureUrl":"https:\/\/media.beatport.com\/image\/5539566.jpg"}},"dynamicImages":{"main":{"url":"\/\/geo-media.beatport.com\/image_size{hq}\/{w}x{h}\/6.jpg"}}},{"id":11,"type":"label","name":"83
        West Records","slug":"83-west-records","active":true,"lastPublishDate":"2005-06-07","biography":"","genres":[{"id":5,"name":"House","slug":"house","type":"genre"},{"id":10,"name":"Chill
        Out","slug":"chill-out","type":"genre"},{"id":12,"name":"Deep House","slug":"deep-house","type":"genre"}],"subGenres":[{"id":17,"name":"Vocal
        House","slug":"vocal-house","type":"subgenre"},{"id":41,"name":"Acid Jazz","slug":"acid-jazz","type":"subgenre"}],"displayLevel":1,"images":{"small":{"width":30,"height":30,"url":"http:\/\/geo-media.beatport.com\/image\/2220.jpg","secureUrl":"https:\/\/media.beatport.com\/image\/2220.jpg"},"medium":{"width":60,"height":60,"url":"http:\/\/geo-media.beatport.com\/image\/7.jpg","secureUrl":"https:\/\/media.beatport.com\/image\/7.jpg"},"large":{"width":500,"height":500,"url":"http:\/\/geo-media.beatport.com\/image\/5539566.jpg","secureUrl":"https:\/\/media.beatport.com\/image\/5539566.jpg"},"banner":{"width":592,"height":96,"url":"http:\/\/geo-media.beatport.com\/image\/37464.jpg","secureUrl":"https:\/\/media.beatport.com\/image\/37464.jpg"}},"dynamicImages":{"main":{"url":"\/\/geo-media.beatport.com\/image_size{hq}\/{w}x{h}\/7.jpg"}}},{"id":12,"type":"label","name":"A
        State Of Trance (Armada)","slug":"a-state-of-trance-armada","active":true,"lastPublishDate":"2012-10-03","biography":"","genres":[{"id":7,"name":"Trance","slug":"trance","type":"genre"},{"id":9,"name":"Breaks","slug":"breaks","type":"genre"},{"id":10,"name":"Chill
        Out","slug":"chill-out","type":"genre"},{"id":5,"name":"House","slug":"house","type":"genre"},{"id":15,"name":"Progressive
        House","slug":"progressive-house","type":"genre"},{"id":3,"name":"Electronica","slug":"electronica","type":"genre"}],"subGenres":[{"id":27,"name":"Progressive","slug":"progressive","type":"subgenre"},{"id":30,"name":"Epic","slug":"epic","type":"subgenre"},{"id":40,"name":"Nu-Jazz","slug":"nu-jazz","type":"subgenre"},{"id":31,"name":"Hard","slug":"hard","type":"subgenre"},{"id":33,"name":"Big
        Beat","slug":"big-beat","type":"subgenre"},{"id":29,"name":"Tech","slug":"tech","type":"subgenre"}],"displayLevel":1,"images":{"small":{"width":30,"height":30,"url":"http:\/\/geo-media.beatport.com\/image\/2221.jpg","secureUrl":"https:\/\/media.beatport.com\/image\/2221.jpg"},"medium":{"width":60,"height":60,"url":"http:\/\/geo-media.beatport.com\/image\/8.jpg","secureUrl":"https:\/\/media.beatport.com\/image\/8.jpg"},"large":{"width":500,"height":500,"url":"http:\/\/geo-media.beatport.com\/image\/5539566.jpg","secureUrl":"https:\/\/media.beatport.com\/image\/5539566.jpg"},"banner":{"width":592,"height":96,"url":"http:\/\/geo-media.beatport.com\/image\/37281.jpg","secureUrl":"https:\/\/media.beatport.com\/image\/37281.jpg"}},"dynamicImages":{"main":{"url":"\/\/geo-media.beatport.com\/image_size{hq}\/{w}x{h}\/8.jpg"}}},{"id":15,"type":"label","name":"AcropolisRPM","slug":"acropolisrpm","active":true,"lastPublishDate":"2012-08-18","biography":"","genres":[{"id":6,"name":"Techno","slug":"techno","type":"genre"},{"id":1,"name":"Drum
        & Bass","slug":"drum-and-bass","type":"genre"},{"id":7,"name":"Trance","slug":"trance","type":"genre"},{"id":8,"name":"Hard
        Dance","slug":"hard-dance","type":"genre"},{"id":5,"name":"House","slug":"house","type":"genre"},{"id":9,"name":"Breaks","slug":"breaks","type":"genre"},{"id":15,"name":"Progressive
        House","slug":"progressive-house","type":"genre"},{"id":17,"name":"Electro
        House","slug":"electro-house","type":"genre"},{"id":10,"name":"Chill Out","slug":"chill-out","type":"genre"},{"id":11,"name":"Tech
        House","slug":"tech-house","type":"genre"},{"id":37,"name":"Indie Dance \/
        Nu Disco","slug":"indie-dance-nu-disco","type":"genre"},{"id":18,"name":"Dubstep","slug":"dubstep","type":"genre"},{"id":3,"name":"Electronica","slug":"electronica","type":"genre"}],"subGenres":[{"id":29,"name":"Tech","slug":"tech","type":"subgenre"},{"id":31,"name":"Hard","slug":"hard","type":"subgenre"},{"id":28,"name":"Acid","slug":"acid","type":"subgenre"},{"id":39,"name":"Downtempo","slug":"downtempo","type":"subgenre"},{"id":27,"name":"Progressive","slug":"progressive","type":"subgenre"},{"id":19,"name":"Tribal","slug":"tribal","type":"subgenre"},{"id":88,"name":"Indie
        Dance","slug":"indie-dance","type":"subgenre"},{"id":32,"name":"Nu-NRG","slug":"nu-nrg","type":"subgenre"},{"id":30,"name":"Epic","slug":"epic","type":"subgenre"},{"id":18,"name":"Disco","slug":"disco","type":"subgenre"},{"id":38,"name":"Progressive","slug":"progressive","type":"subgenre"}],"displayLevel":1,"images":{"small":{"width":30,"height":30,"url":"http:\/\/geo-media.beatport.com\/image\/2498.jpg","secureUrl":"https:\/\/media.beatport.com\/image\/2498.jpg"},"medium":{"width":60,"height":60,"url":"http:\/\/geo-media.beatport.com\/image\/285.jpg","secureUrl":"https:\/\/media.beatport.com\/image\/285.jpg"},"large":{"width":500,"height":500,"url":"http:\/\/geo-media.beatport.com\/image\/5539566.jpg","secureUrl":"https:\/\/media.beatport.com\/image\/5539566.jpg"}},"dynamicImages":{"main":{"url":"\/\/geo-media.beatport.com\/image_size{hq}\/{w}x{h}\/285.jpg"}}},{"id":16,"type":"label","name":"Acute
        Recordings","slug":"acute-recordings","active":true,"lastPublishDate":"2011-07-14","biography":"","genres":[{"id":15,"name":"Progressive
        House","slug":"progressive-house","type":"genre"},{"id":7,"name":"Trance","slug":"trance","type":"genre"},{"id":11,"name":"Tech
        House","slug":"tech-house","type":"genre"},{"id":6,"name":"Techno","slug":"techno","type":"genre"},{"id":17,"name":"Electro
        House","slug":"electro-house","type":"genre"},{"id":12,"name":"Deep House","slug":"deep-house","type":"genre"}],"subGenres":[{"id":27,"name":"Progressive","slug":"progressive","type":"subgenre"}],"displayLevel":1,"images":{"small":{"width":30,"height":30,"url":"http:\/\/geo-media.beatport.com\/image\/2505.jpg","secureUrl":"https:\/\/media.beatport.com\/image\/2505.jpg"},"medium":{"width":60,"height":60,"url":"http:\/\/geo-media.beatport.com\/image\/292.jpg","secureUrl":"https:\/\/media.beatport.com\/image\/292.jpg"},"large":{"width":500,"height":500,"url":"http:\/\/geo-media.beatport.com\/image\/5539566.jpg","secureUrl":"https:\/\/media.beatport.com\/image\/5539566.jpg"},"banner":{"width":592,"height":96,"url":"http:\/\/geo-media.beatport.com\/image\/37454.jpg","secureUrl":"https:\/\/media.beatport.com\/image\/37454.jpg"}},"dynamicImages":{"main":{"url":"\/\/geo-media.beatport.com\/image_size{hq}\/{w}x{h}\/292.jpg"}}},{"id":18,"type":"label","name":"Adjusted
        Music","slug":"adjusted-music","active":true,"lastPublishDate":"2012-08-27","biography":"","genres":[{"id":7,"name":"Trance","slug":"trance","type":"genre"},{"id":10,"name":"Chill
        Out","slug":"chill-out","type":"genre"}],"subGenres":[{"id":40,"name":"Nu-Jazz","slug":"nu-jazz","type":"subgenre"},{"id":27,"name":"Progressive","slug":"progressive","type":"subgenre"},{"id":29,"name":"Tech","slug":"tech","type":"subgenre"}],"displayLevel":1,"images":{"small":{"width":30,"height":30,"url":"http:\/\/geo-media.beatport.com\/image\/2497.jpg","secureUrl":"https:\/\/media.beatport.com\/image\/2497.jpg"},"medium":{"width":60,"height":60,"url":"http:\/\/geo-media.beatport.com\/image\/284.jpg","secureUrl":"https:\/\/media.beatport.com\/image\/284.jpg"},"large":{"width":500,"height":500,"url":"http:\/\/geo-media.beatport.com\/image\/5539566.jpg","secureUrl":"https:\/\/media.beatport.com\/image\/5539566.jpg"},"banner":{"width":592,"height":96,"url":"http:\/\/geo-media.beatport.com\/image\/37397.jpg","secureUrl":"https:\/\/media.beatport.com\/image\/37397.jpg"}},"dynamicImages":{"main":{"url":"\/\/geo-media.beatport.com\/image_size{hq}\/{w}x{h}\/284.jpg"}}},{"id":19,"type":"label","name":"Advanced
        Records","slug":"advanced-records","active":true,"lastPublishDate":"2010-03-29","biography":"","genres":[{"id":6,"name":"Techno","slug":"techno","type":"genre"},{"id":15,"name":"Progressive
        House","slug":"progressive-house","type":"genre"},{"id":5,"name":"House","slug":"house","type":"genre"},{"id":7,"name":"Trance","slug":"trance","type":"genre"},{"id":14,"name":"Minimal","slug":"minimal","type":"genre"},{"id":17,"name":"Electro
        House","slug":"electro-house","type":"genre"},{"id":10,"name":"Chill Out","slug":"chill-out","type":"genre"},{"id":3,"name":"Electronica","slug":"electronica","type":"genre"},{"id":1,"name":"Drum
        & Bass","slug":"drum-and-bass","type":"genre"},{"id":9,"name":"Breaks","slug":"breaks","type":"genre"},{"id":11,"name":"Tech
        House","slug":"tech-house","type":"genre"},{"id":16,"name":"DJ Tools","slug":"dj-tools","type":"genre"}],"subGenres":[{"id":24,"name":"Melodic","slug":"melodic","type":"subgenre"},{"id":39,"name":"Downtempo","slug":"downtempo","type":"subgenre"},{"id":14,"name":"Electro","slug":"electro","type":"subgenre"},{"id":38,"name":"Progressive","slug":"progressive","type":"subgenre"},{"id":44,"name":"Reprise","slug":"reprise","type":"subgenre"}],"displayLevel":1,"images":{"small":{"width":30,"height":30,"url":"http:\/\/geo-media.beatport.com\/image\/2222.jpg","secureUrl":"https:\/\/media.beatport.com\/image\/2222.jpg"},"medium":{"width":60,"height":60,"url":"http:\/\/geo-media.beatport.com\/image\/9.jpg","secureUrl":"https:\/\/media.beatport.com\/image\/9.jpg"},"large":{"width":500,"height":500,"url":"http:\/\/geo-media.beatport.com\/image\/5539566.jpg","secureUrl":"https:\/\/media.beatport.com\/image\/5539566.jpg"},"banner":{"width":592,"height":96,"url":"http:\/\/geo-media.beatport.com\/image\/37164.jpg","secureUrl":"https:\/\/media.beatport.com\/image\/37164.jpg"}},"dynamicImages":{"main":{"url":"\/\/geo-media.beatport.com\/image_size{hq}\/{w}x{h}\/9.jpg"}}}]}'
    http_version: '1.1'
  recorded_at: Wed, 10 Oct 2012 00:51:11 GMT
recorded_with: VCR 2.2.5
