---
http_interactions:
- request:
    method: get
    uri: http://api.beatport.com/catalog/3/search?facets=genreName%3ATrance&query=anjunadeep
    body:
      encoding: US-ASCII
      string: ''
    headers: {}
  response:
    status:
      code: 200
      message: OK
    headers:
      date:
      - Wed, 10 Oct 2012 01:19:15 GMT
      server:
      - Apache
      expires:
      - Wed, 10 Oct 2012 01:49:15 GMT
      pragma:
      - public
      cache-control:
      - public, max-age=1800
      access-control-allow-origin:
      - ! '*'
      connection:
      - close
      transfer-encoding:
      - chunked
      content-type:
      - application/json
    body:
      encoding: US-ASCII
      string: ! '{"metadata":{"host":"api.beatport.com","path":"\/catalog\/search","query":"facets%5B0%5D=genreName%3ATrance&query=anjunadeep","page":1,"perPage":10,"count":51,"totalPages":6,"nextQuery":"facets%5B0%5D=genreName%3ATrance&query=anjunadeep&page=2","perPageOptions":[{"value":50,"applyQuery":"facets%5B0%5D=genreName%3ATrance&query=anjunadeep&perPage=50"},{"value":100,"applyQuery":"facets%5B0%5D=genreName%3ATrance&query=anjunadeep&perPage=100"},{"value":150,"applyQuery":"facets%5B0%5D=genreName%3ATrance&query=anjunadeep&perPage=150"}],"facets":{"fields":[]},"appliedFacets":[],"spellcheck":{"suggestions":[]}},"results":[{"id":1390,"type":"label","name":"Anjunadeep","slug":"anjunadeep","active":true,"lastPublishDate":"2012-10-08","biography":"","genres":[{"id":7,"name":"Trance","slug":"trance","type":"genre"},{"id":15,"name":"Progressive
        House","slug":"progressive-house","type":"genre"},{"id":17,"name":"Electro
        House","slug":"electro-house","type":"genre"},{"id":5,"name":"House","slug":"house","type":"genre"},{"id":11,"name":"Tech
        House","slug":"tech-house","type":"genre"},{"id":3,"name":"Electronica","slug":"electronica","type":"genre"},{"id":1,"name":"Drum
        & Bass","slug":"drum-and-bass","type":"genre"},{"id":10,"name":"Chill Out","slug":"chill-out","type":"genre"},{"id":12,"name":"Deep
        House","slug":"deep-house","type":"genre"},{"id":6,"name":"Techno","slug":"techno","type":"genre"},{"id":18,"name":"Dubstep","slug":"dubstep","type":"genre"}],"subGenres":[{"id":27,"name":"Progressive","slug":"progressive","type":"subgenre"},{"id":91,"name":"ProgNo","slug":"progno","type":"subgenre"}],"displayLevel":1,"images":{"small":{"width":30,"height":30,"url":"http:\/\/geo-media.beatport.com\/image\/3406.jpg","secureUrl":"https:\/\/media.beatport.com\/image\/3406.jpg"},"medium":{"width":60,"height":60,"url":"http:\/\/geo-media.beatport.com\/image\/1191.jpg","secureUrl":"https:\/\/media.beatport.com\/image\/1191.jpg"},"large":{"width":500,"height":500,"url":"http:\/\/geo-media.beatport.com\/image\/5539566.jpg","secureUrl":"https:\/\/media.beatport.com\/image\/5539566.jpg"},"banner":{"width":592,"height":96,"url":"http:\/\/geo-media.beatport.com\/image\/345152.jpg","secureUrl":"https:\/\/media.beatport.com\/image\/345152.jpg"}},"dynamicImages":{"main":{"url":"\/\/geo-media.beatport.com\/image_size{hq}\/{w}x{h}\/1191.jpg"}}},{"id":38792,"type":"chart","sku":"chart-38792","name":"Jaytech''s
        Anjunadeep August Chart","slug":"jaytechs-anjunadeep-august-chart","description":"","active":true,"publishDate":"2011-08-23","price":{"code":"usd","symbol":"$","value":1490},"audioFormatFee":{"wav":{"code":"usd","symbol":"$","value":1000},"aiff":{"code":"usd","symbol":"$","value":1000}},"genres":[{"id":7,"name":"Trance","slug":"trance","type":"genre"},{"id":15,"name":"Progressive
        House","slug":"progressive-house","type":"genre"}],"images":{"small":{"width":30,"height":30,"url":"http:\/\/geo-media.beatport.com\/image\/3271944.jpg","secureUrl":"https:\/\/media.beatport.com\/image\/3271944.jpg"},"medium":{"width":60,"height":60,"url":"http:\/\/geo-media.beatport.com\/image\/3271945.jpg","secureUrl":"https:\/\/media.beatport.com\/image\/3271945.jpg"},"large":{"width":130,"height":130,"url":"http:\/\/geo-media.beatport.com\/image\/3271946.jpg","secureUrl":"https:\/\/media.beatport.com\/image\/3271946.jpg"},"xlarge":{"width":500,"height":500,"url":"http:\/\/geo-media.beatport.com\/image\/3271947.jpg","secureUrl":"https:\/\/media.beatport.com\/image\/3271947.jpg"}},"dynamicImages":{"main":{"url":"\/\/geo-media.beatport.com\/image_size{hq}\/{w}x{h}\/3271947.jpg"}},"chartOwner":null},{"id":48813,"type":"chart","sku":"chart-48813","name":"Joonas
        Hahmo - Anjunadeep 04 chart","slug":"joonas-hahmo-anjunadeep-04-chart","description":"","active":true,"publishDate":"2012-03-02","price":{"code":"usd","symbol":"$","value":1341},"audioFormatFee":{"wav":{"code":"usd","symbol":"$","value":900},"aiff":{"code":"usd","symbol":"$","value":900}},"genres":[{"id":7,"name":"Trance","slug":"trance","type":"genre"},{"id":15,"name":"Progressive
        House","slug":"progressive-house","type":"genre"}],"images":{"small":{"width":30,"height":30,"url":"http:\/\/geo-media.beatport.com\/image\/5081777.jpg","secureUrl":"https:\/\/media.beatport.com\/image\/5081777.jpg"},"medium":{"width":60,"height":60,"url":"http:\/\/geo-media.beatport.com\/image\/5081778.jpg","secureUrl":"https:\/\/media.beatport.com\/image\/5081778.jpg"},"large":{"width":130,"height":130,"url":"http:\/\/geo-media.beatport.com\/image\/5081779.jpg","secureUrl":"https:\/\/media.beatport.com\/image\/5081779.jpg"},"xlarge":{"width":500,"height":500,"url":"http:\/\/geo-media.beatport.com\/image\/5081780.jpg","secureUrl":"https:\/\/media.beatport.com\/image\/5081780.jpg"}},"dynamicImages":{"main":{"url":"\/\/geo-media.beatport.com\/image_size{hq}\/{w}x{h}\/5081780.jpg"}},"chartOwner":null},{"id":215217,"selected":false,"type":"track","sku":"track-215217","name":"Volume
        1","active":true,"mixName":"AnjunaDeep Mix","title":"Volume 1 (AnjunaDeep
        Mix)","slug":"volume-1-anjunadeep-mix","isrc":null,"releaseDate":"2000-06-01","publishDate":"2000-06-01","sampleUrl":"http:\/\/geo-samples.beatport.com\/lofi\/215217.LOFI.mp3","isPreviewAvailable":null,"isAvailableForMix":true,"rtmpStreamUrl":"rtmp:\/\/geo-rtmp-samples.beatport.com\/beatport\/_definst_\/mp3:lofi_samples\/items\/volumes\/volume2\/items\/0\/200000\/10000\/5000\/200\/10\/215217.LOFI","exclusive":false,"price":{"code":"usd","symbol":"$","value":149},"audioFormatFee":{"wav":{"code":"usd","symbol":"$","value":100},"aiff":{"code":"usd","symbol":"$","value":100}},"losslessUpgradeFormatFee":[],"currentStatus":"General
        Content","length":"08:46","bpm":136,"key":{"standard":{"letter":"A","sharp":true,"flat":false,"chord":"minor"}},"saleType":"purchase","artists":[{"id":28093,"name":"Anjuna
        Beats","slug":"anjuna-beats","type":"artist"}],"genres":[{"id":7,"name":"Trance","slug":"trance","type":"genre"}],"subGenres":[],"charts":[],"release":{"id":38763,"name":"Volume
        1","type":"release","slug":"volume-1"},"label":{"id":804,"name":"Anjunabeats","type":"label","slug":"anjunabeats"},"images":{"small":{"width":30,"height":30,"url":"http:\/\/geo-media.beatport.com\/image\/60759.jpg","secureUrl":"https:\/\/media.beatport.com\/image\/60759.jpg"},"medium":{"width":60,"height":60,"url":"http:\/\/geo-media.beatport.com\/image\/60760.jpg","secureUrl":"https:\/\/media.beatport.com\/image\/60760.jpg"},"large":{"width":500,"height":500,"url":"http:\/\/geo-media.beatport.com\/image\/5245821.jpg","secureUrl":"https:\/\/media.beatport.com\/image\/5245821.jpg"},"waveform":{"width":1500,"height":250,"url":"http:\/\/geo-media.beatport.com\/image\/2353813.png","secureUrl":"https:\/\/media.beatport.com\/image\/2353813.png"}},"dynamicImages":{"main":{"url":"\/\/geo-media.beatport.com\/image_size{hq}\/{w}x{h}\/60760.jpg"}}},{"id":940969,"type":"release","sku":"release-940969","name":"Anjunadeep
        04 (Unmixed & DJ Ready)","slug":"anjunadeep-04-unmixed-and-dj-ready","active":true,"releaseDate":"2012-07-24","publishDate":"2012-07-24","exclusive":false,"category":"Album","description":"","currentStatus":"General
        Content","catalogNumber":"ANJCDCO092D","purchasable":true,"price":{"code":"usd","symbol":"$","value":999},"tracksPrice":{"code":"usd","symbol":"$","value":3576},"audioFormatFee":{"wav":{"code":"usd","symbol":"$","value":2400},"aiff":{"code":"usd","symbol":"$","value":2400}},"label":{"id":1390,"name":"Anjunadeep","type":"label","slug":"anjunadeep"},"artists":[{"id":6471,"name":"P.O.S.","slug":"p-o-s","type":"artist"},{"id":6484,"name":"Stephen
        J. Kroos","slug":"stephen-j-kroos","type":"artist"},{"id":6510,"name":"Vincenzo","slug":"vincenzo","type":"artist"},{"id":8998,"name":"Jaytech","slug":"jaytech","type":"artist"},{"id":13732,"name":"Martin
        Roth","slug":"martin-roth","type":"artist"},{"id":16068,"name":"P8","slug":"p8","type":"artist"},{"id":22052,"name":"Joonas
        Hahmo","slug":"joonas-hahmo","type":"artist"},{"id":27206,"name":"Vadim Soloviev","slug":"vadim-soloviev","type":"artist"},{"id":37844,"name":"Parker
        & Hanson","slug":"parker-and-hanson","type":"artist"},{"id":41125,"name":"Oliver
        Smith","slug":"oliver-smith","type":"artist"},{"id":48881,"name":"Paronator","slug":"paronator","type":"artist"},{"id":61194,"name":"Dusky","slug":"dusky","type":"artist"},{"id":79895,"name":"Full
        Tilt","slug":"full-tilt","type":"artist"},{"id":82515,"name":"Solarity","slug":"solarity","type":"artist"},{"id":88779,"name":"Kobana","slug":"kobana","type":"artist"},{"id":98835,"name":"Andrew
        Bayer","slug":"andrew-bayer","type":"artist"},{"id":111898,"name":"Answer42","slug":"answer42","type":"artist"},{"id":126709,"name":"Soundprank","slug":"soundprank","type":"artist"},{"id":143091,"name":"Suspect
        44","slug":"suspect-44","type":"artist"},{"id":172648,"name":"Yane3dots","slug":"yane3dots","type":"artist"},{"id":176503,"name":"Levente
        Marton","slug":"levente-marton","type":"artist"},{"id":1768,"name":"Tom Middleton","slug":"tom-middleton","type":"remixer"},{"id":95557,"name":"James
        Grant","slug":"james-grant","type":"remixer"}],"genres":[{"id":3,"name":"Electronica","slug":"electronica","type":"genre"},{"id":12,"name":"Deep
        House","slug":"deep-house","type":"genre"},{"id":15,"name":"Progressive House","slug":"progressive-house","type":"genre"},{"id":7,"name":"Trance","slug":"trance","type":"genre"}],"images":{"small":{"width":30,"height":30,"url":"http:\/\/geo-media.beatport.com\/image\/5714024.jpg","secureUrl":"https:\/\/media.beatport.com\/image\/5714024.jpg"},"medium":{"width":60,"height":60,"url":"http:\/\/geo-media.beatport.com\/image\/5714025.jpg","secureUrl":"https:\/\/media.beatport.com\/image\/5714025.jpg"},"large":{"width":500,"height":500,"url":"http:\/\/geo-media.beatport.com\/image\/5714026.jpg","secureUrl":"https:\/\/media.beatport.com\/image\/5714026.jpg"}},"dynamicImages":{"main":{"url":"\/\/geo-media.beatport.com\/image_size{hq}\/{w}x{h}\/5714026.jpg"}}},{"id":232766,"type":"release","sku":"release-232766","name":"Hola","slug":"hola","active":true,"releaseDate":"2010-03-30","publishDate":"2010-03-30","exclusive":false,"category":"Release","description":"","currentStatus":"General
        Content","catalogNumber":"ANJDEE072D","purchasable":true,"price":{"code":"usd","symbol":"$","value":298},"tracksPrice":{"code":"usd","symbol":"$","value":298},"audioFormatFee":{"wav":{"code":"usd","symbol":"$","value":200},"aiff":{"code":"usd","symbol":"$","value":200}},"label":{"id":1390,"name":"Anjunadeep","type":"label","slug":"anjunadeep"},"artists":[{"id":9793,"name":"Alex
        Monakhov","slug":"alex-monakhov","type":"artist"},{"id":129781,"name":"Que","slug":"que","type":"artist"},{"id":24276,"name":"PROFF","slug":"proff","type":"remixer"}],"genres":[{"id":7,"name":"Trance","slug":"trance","type":"genre"},{"id":15,"name":"Progressive
        House","slug":"progressive-house","type":"genre"}],"images":{"small":{"width":30,"height":30,"url":"http:\/\/geo-media.beatport.com\/image\/631718.jpg","secureUrl":"https:\/\/media.beatport.com\/image\/631718.jpg"},"medium":{"width":60,"height":60,"url":"http:\/\/geo-media.beatport.com\/image\/631719.jpg","secureUrl":"https:\/\/media.beatport.com\/image\/631719.jpg"},"large":{"width":500,"height":500,"url":"http:\/\/geo-media.beatport.com\/image\/631720.jpg","secureUrl":"https:\/\/media.beatport.com\/image\/631720.jpg"}},"dynamicImages":{"main":{"url":"\/\/geo-media.beatport.com\/image_size{hq}\/{w}x{h}\/631720.jpg"}}},{"id":81170,"type":"release","sku":"release-81170","name":"Welsh
        Morphology","slug":"welsh-morphology","active":true,"releaseDate":"2007-10-29","publishDate":"2007-10-29","exclusive":false,"category":"Release","description":"David
        West is back on Anjunabeats with what can only be described as innovative,
        progressive, trance with big room written all over it. \u2018Welsh Morphology\u2019
        \u2013 get ready to hear this on every dance floor on the globe.\r\nThe Original
        Mix is a monster of a tune take a playful melody, graced with a soft non-sensical
        vocal, and build with a bouncing baseline and you have \u2018Welsh Morphology\u2019.  The
        Charles Gudagavfa Remix is a deeper, housey play on the original. Blending
        the original vocals with an electro edge, think Urban Torque cross Martin
        Roth and add a sparkle of original and booyah! This package is nothing far
        from impressive; the original is already on Armin Van Buurens \u2018Universal
        Religion\u2019 2007.","currentStatus":"General Content","catalogNumber":"ANJDEE-017","purchasable":true,"price":{"code":"usd","symbol":"$","value":298},"tracksPrice":{"code":"usd","symbol":"$","value":298},"audioFormatFee":{"wav":{"code":"usd","symbol":"$","value":200},"aiff":{"code":"usd","symbol":"$","value":200}},"label":{"id":1390,"name":"Anjunadeep","type":"label","slug":"anjunadeep"},"artists":[{"id":5393,"name":"David
        West","slug":"david-west","type":"artist"},{"id":47304,"name":"Charles Gudagafva","slug":"charles-gudagafva","type":"remixer"}],"genres":[{"id":7,"name":"Trance","slug":"trance","type":"genre"},{"id":15,"name":"Progressive
        House","slug":"progressive-house","type":"genre"}],"images":{"small":{"width":30,"height":30,"url":"http:\/\/geo-media.beatport.com\/image\/164125.jpg","secureUrl":"https:\/\/media.beatport.com\/image\/164125.jpg"},"medium":{"width":60,"height":60,"url":"http:\/\/geo-media.beatport.com\/image\/164126.jpg","secureUrl":"https:\/\/media.beatport.com\/image\/164126.jpg"},"large":{"width":500,"height":500,"url":"http:\/\/geo-media.beatport.com\/image\/5245821.jpg","secureUrl":"https:\/\/media.beatport.com\/image\/5245821.jpg"}},"dynamicImages":{"main":{"url":"\/\/geo-media.beatport.com\/image_size{hq}\/{w}x{h}\/164126.jpg"}}},{"id":57986,"type":"release","sku":"release-57986","name":"Zeppelin
        \/ David","slug":"zeppelin-david","active":true,"releaseDate":"2007-07-09","publishDate":"2007-07-09","exclusive":false,"category":"Release","description":"Michael
        Cassette hails from Finland and draws his musical inspiration from the memory
        of his late brother, David. And this essential two tracker announces him as
        a major new house music talent. On the A-side, ''Zeppelin'' hails from the
        ''Discopolis'' school of thinking, combining influences from the late 70''s
        and 80''s with today''s production values. Already on the playlists of Hernan
        Cattaneo and Chris Lake.\r\n\r\nThe result is a melodic house beauty that
        just keeps on building and building. On the flip, ''David'' is a direct tribute
        to Cassette''s late brother, a chunky, 80''s-infused electro houser with poignant
        vo-coded vocals. An awesome debut. ''Zeppelin'' appears on Above & Beyond:
        Anjunabeats Volume Five'' released May21st 2007","currentStatus":"General
        Content","catalogNumber":"ANJDEE013","purchasable":true,"price":{"code":"usd","symbol":"$","value":447},"tracksPrice":{"code":"usd","symbol":"$","value":447},"audioFormatFee":{"wav":{"code":"usd","symbol":"$","value":300},"aiff":{"code":"usd","symbol":"$","value":300}},"label":{"id":1390,"name":"Anjunadeep","type":"label","slug":"anjunadeep"},"artists":[{"id":7848,"name":"Allende","slug":"allende","type":"remixer"},{"id":40060,"name":"Michael
        Cassette","slug":"michael-cassette","type":"artist"}],"genres":[{"id":15,"name":"Progressive
        House","slug":"progressive-house","type":"genre"},{"id":7,"name":"Trance","slug":"trance","type":"genre"}],"images":{"small":{"width":30,"height":30,"url":"http:\/\/geo-media.beatport.com\/image\/106128.jpg","secureUrl":"https:\/\/media.beatport.com\/image\/106128.jpg"},"medium":{"width":60,"height":60,"url":"http:\/\/geo-media.beatport.com\/image\/106129.jpg","secureUrl":"https:\/\/media.beatport.com\/image\/106129.jpg"},"large":{"width":500,"height":500,"url":"http:\/\/geo-media.beatport.com\/image\/5245821.jpg","secureUrl":"https:\/\/media.beatport.com\/image\/5245821.jpg"}},"dynamicImages":{"main":{"url":"\/\/geo-media.beatport.com\/image_size{hq}\/{w}x{h}\/106129.jpg"}}},{"id":45079,"type":"release","sku":"release-45079","name":"Reflect
        \/ Illumina","slug":"reflect-illumina","active":true,"releaseDate":"2007-02-12","publishDate":"2007-02-12","exclusive":false,"category":"Release","description":"","currentStatus":"General
        Content","catalogNumber":"ANJDEE008","purchasable":true,"price":{"code":"usd","symbol":"$","value":298},"tracksPrice":{"code":"usd","symbol":"$","value":298},"audioFormatFee":{"wav":{"code":"usd","symbol":"$","value":200},"aiff":{"code":"usd","symbol":"$","value":200}},"label":{"id":1390,"name":"Anjunadeep","type":"label","slug":"anjunadeep"},"artists":[{"id":13105,"name":"Maor
        Levi","slug":"maor-levi","type":"artist"}],"genres":[{"id":7,"name":"Trance","slug":"trance","type":"genre"}],"images":{"small":{"width":30,"height":30,"url":"http:\/\/geo-media.beatport.com\/image\/75459.jpg","secureUrl":"https:\/\/media.beatport.com\/image\/75459.jpg"},"medium":{"width":60,"height":60,"url":"http:\/\/geo-media.beatport.com\/image\/75460.jpg","secureUrl":"https:\/\/media.beatport.com\/image\/75460.jpg"},"large":{"width":500,"height":500,"url":"http:\/\/geo-media.beatport.com\/image\/5245821.jpg","secureUrl":"https:\/\/media.beatport.com\/image\/5245821.jpg"}},"dynamicImages":{"main":{"url":"\/\/geo-media.beatport.com\/image_size{hq}\/{w}x{h}\/75460.jpg"}}},{"id":19287,"type":"release","sku":"release-19287","name":"Larry
        Mountains 54","slug":"larry-mountains-54","active":true,"releaseDate":"2005-10-27","publishDate":"2005-10-27","exclusive":false,"category":"Release","description":"","currentStatus":"General
        Content","catalogNumber":"ANJDEEP001","purchasable":true,"price":{"code":"usd","symbol":"$","value":298},"tracksPrice":{"code":"usd","symbol":"$","value":298},"audioFormatFee":{"wav":{"code":"usd","symbol":"$","value":200},"aiff":{"code":"usd","symbol":"$","value":200}},"label":{"id":1390,"name":"Anjunadeep","type":"label","slug":"anjunadeep"},"artists":[{"id":1083,"name":"Inkfish","slug":"inkfish","type":"remixer"},{"id":5393,"name":"David
        West","slug":"david-west","type":"artist"}],"genres":[{"id":7,"name":"Trance","slug":"trance","type":"genre"}],"images":{"small":{"width":30,"height":30,"url":"http:\/\/geo-media.beatport.com\/image\/3406.jpg","secureUrl":"https:\/\/media.beatport.com\/image\/3406.jpg"},"medium":{"width":60,"height":60,"url":"http:\/\/geo-media.beatport.com\/image\/1191.jpg","secureUrl":"https:\/\/media.beatport.com\/image\/1191.jpg"},"large":{"width":500,"height":500,"url":"http:\/\/geo-media.beatport.com\/image\/5245821.jpg","secureUrl":"https:\/\/media.beatport.com\/image\/5245821.jpg"}},"dynamicImages":{"main":{"url":"\/\/geo-media.beatport.com\/image_size{hq}\/{w}x{h}\/1191.jpg"}}}]}'
    http_version: '1.1'
  recorded_at: Wed, 10 Oct 2012 01:19:15 GMT
recorded_with: VCR 2.2.5
